<svg width="1920" height="860" viewBox="0 0 1920 860" fill="none" xmlns="http://www.w3.org/2000/svg">
<rect width="1920" height="860" fill="#426072"/>
<rect y="230" width="1920" height="62" fill="#345061"/>
<rect y="230" width="1920" height="62" fill="#345061"/>
<rect y="568" width="1920" height="62" fill="#345061"/>
<rect y="568" width="1920" height="62" fill="#345061"/>
</svg>
